<?xml version="1.0" encoding="UTF-8" standalone="no"?>
<svg
   xmlns:dc="http://purl.org/dc/elements/1.1/"
   xmlns:cc="http://creativecommons.org/ns#"
   xmlns:rdf="http://www.w3.org/1999/02/22-rdf-syntax-ns#"
   xmlns:svg="http://www.w3.org/2000/svg"
   xmlns="http://www.w3.org/2000/svg"
   xmlns:sodipodi="http://sodipodi.sourceforge.net/DTD/sodipodi-0.dtd"
   xmlns:inkscape="http://www.inkscape.org/namespaces/inkscape"
   width="360"
   height="66"
   viewBox="0 0 360 66"
   version="1.1"
   id="svg8"
   sodipodi:docname="gro-plan-large-white.svg"
   inkscape:version="0.92.4 (5da689c313, 2019-01-14)">
  <metadata
     id="metadata14">
    <rdf:RDF>
      <cc:Work
         rdf:about="">
        <dc:format>image/svg+xml</dc:format>
        <dc:type
           rdf:resource="http://purl.org/dc/dcmitype/StillImage" />
        <dc:title></dc:title>
      </cc:Work>
    </rdf:RDF>
  </metadata>
  <defs
     id="defs12" />
  <sodipodi:namedview
     pagecolor="#ffffff"
     bordercolor="#666666"
     borderopacity="1"
     objecttolerance="10"
     gridtolerance="10"
     guidetolerance="10"
     inkscape:pageopacity="0"
     inkscape:pageshadow="2"
     inkscape:window-width="1291"
     inkscape:window-height="651"
     id="namedview10"
     showgrid="false"
     inkscape:zoom="3.4923218"
     inkscape:cx="326.2689"
     inkscape:cy="33"
     inkscape:window-x="1063"
     inkscape:window-y="108"
     inkscape:window-maximized="0"
     inkscape:current-layer="g6" />
  <g
     fill="#163776"
     fill-rule="evenodd"
     transform="translate(18 12)"
     id="g6">
    <path
       d="M 296.40759,30.125 294.43103,41.5 h 6.41406 l 0.14063,-0.8125 h -5.45313 l 1.83594,-10.5625 z"
       id="path834"
       inkscape:connector-curvature="0"
       style="fill:#ffffff" />
    <path
       d="M 315.76563,30.125 313.78906,41.5 H 314.75 l 1.69532,-9.75 4.66406,9.75 h 0.92187 L 324,30.125 h -0.94531 L 321.35938,39.882812 316.6875,30.125 Z"
       id="path830"
       inkscape:connector-curvature="0"
       style="fill:#ffffff" />
    <path
       d="M 308.90692,30.125 302.75848,41.5 h 1.03907 l 1.69531,-3.1875 h 4.98437 l 0.59375,3.1875 h 0.94531 l -2.19531,-11.375 z m 0.28906,1.203125 1.125,6.164063 h -4.39843 z"
       id="path832"
       inkscape:connector-curvature="0"
       style="fill:#ffffff" />
    <path
       d="M15.1735912,21.2694611 C14.483482,22.1665804 13.5269526,22.8459422 12.3039742,23.3075667 C11.0809959,23.7691912 9.69206274,24 8.13713312,24 C6.53852571,24 5.12338627,23.6385447 3.89167236,22.9156233 C2.65995845,22.1927019 1.70998059,21.1584172 1.04171028,19.8127382 C0.373439966,18.4670591 0.0262066789,16.8971238 0,15.1028851 L0,13.6135003 C0,10.7392344 0.69009886,8.49429224 2.07031728,6.87860642 C3.45053571,5.26292061 5.37669771,4.45508982 7.84886109,4.45508982 C9.97160209,4.45508982 11.6575398,4.97767578 12.9067248,6.02286336 C14.1559099,7.06805095 14.9071567,8.57484046 15.160488,10.5432771 L11.910876,10.5432771 C11.5439825,8.25257428 10.2118296,7.10724007 7.91437746,7.10724007 C6.42933232,7.10724007 5.30027818,7.64071323 4.52718115,8.70767556 C3.75408412,9.77463789 3.35443826,11.3402183 3.32823158,13.4044638 L3.32823158,14.8677191 C3.32823158,16.9232547 3.76281916,18.5193193 4.63200734,19.6559608 C5.50119552,20.7926023 6.70886853,21.3609145 8.25506259,21.3609145 C9.94976116,21.3609145 11.1552503,20.9776848 11.8715662,20.2112139 L11.8715662,16.4877518 L7.94058401,16.4877518 L7.94058401,13.9793141 L15.1735912,13.9793141 L15.1735912,21.2694611 Z M30.9199413,15.6516059 C30.9199413,17.2977763 30.6251206,18.7544847 30.0354703,20.0217746 C29.44582,21.2890646 28.605035,22.2689132 27.5130901,22.96135 C26.4211451,23.6537868 25.1632434,24 23.7393472,24 C21.5903995,24 19.8520492,23.2378955 18.5242442,21.7136636 C17.1964391,20.1894317 16.5325465,18.1339269 16.5325465,15.5470876 L16.5325465,12.8034839 C16.5325465,11.1660234 16.8273672,9.71149248 17.4170175,8.43984758 C18.0066678,7.16820268 18.8496366,6.18617657 19.9459494,5.49373979 C21.0422621,4.80130302 22.29798,4.45508982 23.7131406,4.45508982 C25.1370369,4.45508982 26.3971224,4.80130302 27.4934352,5.49373979 C28.5897479,6.18617657 29.4349006,7.17038012 30.0289187,8.44637997 C30.6229367,9.72237981 30.9199413,11.1747333 30.9199413,12.8034839 L30.9199413,15.6516059 Z M30.2123645,12.7773544 C30.2123645,10.4779417 29.6270908,8.63364875 28.4565258,7.24442025 C27.2859608,5.85519175 25.7048482,5.16058792 23.7131406,5.16058792 C21.7476397,5.16058792 20.1796303,5.85083686 19.0090653,7.23135547 C17.8385003,8.61187408 17.2532266,10.4910061 17.2532266,12.8688078 L17.2532266,15.6516059 C17.2532266,17.1671279 17.5174733,18.5062544 18.0459747,19.6690256 C18.574476,20.8317968 19.3279067,21.7267252 20.3062894,22.3538378 C21.2846721,22.9809503 22.4290132,23.2945019 23.7393472,23.2945019 C25.7310548,23.2945019 27.3077996,22.6020755 28.4696291,21.217202 C29.6314585,19.8323284 30.2123645,17.9423092 30.2123645,15.5470876 L30.2123645,12.7773544 Z M20.1621534,0.731627654 C20.1621534,0.531300033 20.2320368,0.359282156 20.3718058,0.215568862 C20.5115747,0.0718555689 20.6819156,0 20.8828335,0 C21.0837513,0 21.2562761,0.0718555689 21.4004128,0.215568862 C21.5445495,0.359282156 21.6166168,0.531300033 21.6166168,0.731627654 C21.6166168,0.931955275 21.5445495,1.10179571 21.4004128,1.24115406 C21.2562761,1.3805124 21.0837513,1.45019053 20.8828335,1.45019053 C20.6819156,1.45019053 20.5115747,1.3805124 20.3718058,1.24115406 C20.2320368,1.10179571 20.1621534,0.931955275 20.1621534,0.731627654 Z M45.5394098,5.42188351 L38.5946746,5.42188351 L38.5946746,23.7387044 L37.8870978,23.7387044 L37.8870978,5.42188351 L30.9423627,5.42188351 L30.9423627,4.71638541 L45.5394098,4.71638541 L59.7002638,4.71638541 L59.7002638,5.42188351 L52.7555286,5.42188351 L52.7555286,23.7387044 L52.0479518,23.7387044 L52.0479518,5.42188351 L45.5394098,5.42188351 Z M25.9931103,0.731627654 C25.9931103,0.531300033 26.0629937,0.359282156 26.2027627,0.215568862 C26.3425316,0.0718555689 26.5128725,0 26.7137904,0 C26.9147082,0 27.087233,0.0718555689 27.2313697,0.215568862 C27.3755064,0.359282156 27.4475737,0.531300033 27.4475737,0.731627654 C27.4475737,0.931955275 27.3755064,1.10179571 27.2313697,1.24115406 C27.087233,1.3805124 26.9147082,1.45019053 26.7137904,1.45019053 C26.5128725,1.45019053 26.3425316,1.3805124 26.2027627,1.24115406 C26.0629937,1.10179571 25.9931103,0.931955275 25.9931103,0.731627654 Z M62.1861006,23.7387044 L61.4785238,23.7387044 L61.4785238,4.71638541 L62.1861006,4.71638541 L62.1861006,23.7387044 Z M79.6096697,23.7387044 L78.902093,23.7387044 L66.5850154,5.91834513 L66.5850154,23.7387044 L65.8643354,23.7387044 L65.8643354,4.71638541 L66.5850154,4.71638541 L78.902093,22.4975504 L78.902093,4.71638541 L79.6096697,4.71638541 L79.6096697,23.7387044 Z M96.2077326,21.7005988 C95.7272768,22.3625509 94.884308,22.9112662 93.6788008,23.346761 C92.4732935,23.7822559 91.1455084,24 89.6954055,24 C88.2802448,24 87.0179754,23.6559642 85.9085593,22.9678824 C84.7991432,22.2798006 83.9321519,21.3086617 83.3075594,20.0544366 C82.6829669,18.8002115 82.3619399,17.3805196 82.3444688,15.7953185 L82.3444688,12.5291236 C82.3444688,10.9700521 82.6458411,9.57213465 83.2485947,8.33532934 C83.8513483,7.09852403 84.6986849,6.14262722 85.7906298,5.46761023 C86.8825748,4.79259325 88.1099025,4.45508982 89.4726498,4.45508982 C91.3682663,4.45508982 92.9122533,4.93848183 94.1046572,5.90528035 C95.2970611,6.87207887 95.9893438,8.19160841 96.1815261,9.86390855 L95.4739493,9.86390855 C95.2380892,8.34838654 94.6047706,7.18563279 93.5739746,6.37561241 C92.5431785,5.56559203 91.176084,5.16058792 89.4726498,5.16058792 C87.5508267,5.16058792 86.0002881,5.84430454 84.8209876,7.2117583 C83.641687,8.57921206 83.0520456,10.3777787 83.0520456,12.6075122 L83.0520456,15.6385411 C83.0520456,17.1279334 83.3293954,18.4561727 83.8841035,19.6232989 C84.4388115,20.790425 85.2206324,21.6940632 86.2295895,22.3342406 C87.2385467,22.974418 88.3938071,23.2945019 89.6954055,23.2945019 C90.9707972,23.2945019 92.1544478,23.1072419 93.2463927,22.7327164 C94.3383377,22.3581908 95.0895845,21.905283 95.5001558,21.3739793 L95.5001558,15.8345128 L89.6691989,15.8345128 L89.6691989,15.1159499 L96.2077326,15.1159499 L96.2077326,21.7005988 Z M109.372738,14.3059336 L99.8073478,14.3059336 L99.8073478,23.0332063 L110.709272,23.0332063 L110.709272,23.7387044 L99.099771,23.7387044 L99.099771,4.71638541 L110.709272,4.71638541 L110.709272,5.42188351 L99.8073478,5.42188351 L99.8073478,13.6004355 L109.372738,13.6004355 L109.372738,14.3059336 Z M126.036317,23.7387044 L125.32874,23.7387044 L113.011663,5.91834513 L113.011663,23.7387044 L112.290983,23.7387044 L112.290983,4.71638541 L113.011663,4.71638541 L125.32874,22.4975504 L125.32874,4.71638541 L126.036317,4.71638541 L126.036317,23.7387044 Z M135.519302,16.4093631 L131.824179,16.4093631 L131.824179,23.7387044 L128.509051,23.7387044 L128.509051,4.71638541 L135.217927,4.71638541 C137.419288,4.71638541 139.118329,5.20848719 140.3151,6.1927055 C141.511872,7.17692381 142.110249,8.60097054 142.110249,10.4648884 C142.110249,11.7365333 141.802325,12.8013022 141.186468,13.659227 C140.570611,14.5171518 139.712355,15.1769166 138.611675,15.6385411 L142.896445,23.5688623 L142.896445,23.7387044 L139.345458,23.7387044 L135.519302,16.4093631 Z M131.824179,13.7572128 L135.23103,13.7572128 C136.349182,13.7572128 137.222725,13.4763229 137.851685,12.9145346 C138.480645,12.3527462 138.795121,11.5841094 138.795121,10.608601 C138.795121,9.58954308 138.504668,8.80130927 137.923753,8.24387588 C137.342838,7.6864425 136.475847,7.39902023 135.322753,7.38160044 L131.824179,7.38160044 L131.824179,13.7572128 Z M154.122166,14.3059336 L144.556776,14.3059336 L144.556776,23.0332063 L155.4587,23.0332063 L155.4587,23.7387044 L143.849199,23.7387044 L143.849199,4.71638541 L155.4587,4.71638541 L155.4587,5.42188351 L144.556776,5.42188351 L144.556776,13.6004355 L154.122166,13.6004355 L154.122166,14.3059336 Z M182.08909,23.0332063 L188.965519,4.71638541 L189.830335,4.71638541 L196.971619,23.7387044 L196.198526,23.7387044 L194.062693,18.0555253 L184.720058,18.0555253 L182.597328,23.7387044 L182.430771,23.7387044 L170.82127,23.7387044 L170.82127,4.71638541 L182.430771,4.71638541 L182.430771,5.42188351 L171.528847,5.42188351 L171.528847,13.6004355 L181.094237,13.6004355 L181.094237,14.3059336 L171.528847,14.3059336 L171.528847,23.0332063 L182.08909,23.0332063 Z M168.466466,19.1790964 C168.466466,18.369076 168.27647,17.6831819 167.896473,17.1213936 C167.516476,16.5596052 166.9181,16.0631486 166.101325,15.6320087 C165.28455,15.2008688 164.050671,14.7588482 162.39965,14.3059336 C160.748629,13.853019 159.510382,13.3957563 158.684872,12.9341317 C157.859361,12.4725072 157.254433,11.9368566 156.870068,11.3271639 C156.485704,10.7174711 156.293524,9.97714099 156.293524,9.10615133 C156.293524,7.72127778 156.878798,6.59989542 158.049363,5.7419706 C159.219928,4.88404579 160.74426,4.45508982 162.622406,4.45508982 C163.845384,4.45508982 164.943864,4.69243094 165.917879,5.1671203 C166.891894,5.64180967 167.645325,6.30810676 168.178194,7.16603157 C168.711063,8.02395639 168.977493,8.99291784 168.977493,10.072945 L168.269917,10.072945 C168.269917,8.65323188 167.745791,7.47959092 166.697524,6.55198694 C165.649257,5.62438295 164.290897,5.16058792 162.622406,5.16058792 C160.945178,5.16058792 159.589003,5.53293041 158.553839,6.27762657 C157.518675,7.02232272 157.001101,7.95644512 157.001101,9.08002177 C157.001101,10.2210182 157.450976,11.1398985 158.350738,11.8366903 C159.250501,12.533482 160.735524,13.1496979 162.805851,13.6853566 C164.876179,14.2210152 166.391776,14.841586 167.352687,15.5470876 C168.575666,16.444207 169.187146,17.6461547 169.187146,19.1529668 C169.187146,20.1110554 168.916347,20.9580802 168.374743,21.6940664 C167.833138,22.4300527 167.06442,22.9983649 166.068567,23.3990201 C165.072713,23.7996754 163.954578,24 162.714128,24 C161.33391,24 160.093479,23.7713686 158.992799,23.3140991 C157.892118,22.8568295 157.064436,22.2057745 156.509728,21.3609145 C155.95502,20.5160546 155.67767,19.5187864 155.67767,18.36908 L156.385247,18.36908 C156.385247,19.9281515 156.970521,21.138809 158.141086,22.0010887 C159.311651,22.8633685 160.835983,23.2945019 162.714128,23.2945019 C164.38262,23.2945019 165.75845,22.9134496 166.84166,22.1513337 C167.924869,21.3892177 168.466466,20.3984819 168.466466,19.1790964 Z M184.982124,17.3500272 L193.800627,17.3500272 L189.397927,5.56559608 L184.982124,17.3500272 Z M205.209793,15.5993468 L198.59264,15.5993468 L198.59264,23.7387044 L197.885063,23.7387044 L197.885063,4.71638541 L203.964982,4.71638541 C205.87807,4.71638541 207.400218,5.20848719 208.531473,6.1927055 C209.662728,7.17692381 210.228347,8.51387288 210.228347,10.2035928 C210.228347,11.5013674 209.824334,12.6358144 209.016295,13.6069679 C208.208255,14.5781214 207.179659,15.1812726 205.930474,15.4164398 L211.027647,23.5557975 L211.027647,23.7387044 L210.280761,23.7387044 L205.209793,15.5993468 Z M198.59264,14.8938487 L204.607043,14.8938487 C206.074617,14.8938487 207.260451,14.4496506 208.164582,13.5612412 C209.068712,12.6728317 209.520771,11.5536268 209.520771,10.2035928 C209.520771,8.7229104 209.020667,7.55580176 208.020446,6.7022319 C207.020224,5.84866204 205.650946,5.42188351 203.912569,5.42188351 L198.59264,5.42188351 L198.59264,14.8938487 Z M226.394002,17.9118127 C226.210556,19.8715395 225.53356,21.3761515 224.362995,22.4256941 C223.19243,23.4752366 221.602582,24 219.593403,24 C218.239391,24 217.040454,23.6581417 215.996554,22.9744148 C214.952655,22.2906879 214.142444,21.319549 213.565897,20.060969 C212.98935,18.8023889 212.696713,17.3631001 212.687978,15.7430593 L212.687978,12.8034839 C212.687978,11.1834432 212.971879,9.73544459 213.539691,8.45944475 C214.107502,7.1834449 214.917713,6.19706391 215.970348,5.50027218 C217.022983,4.80348046 218.230656,4.45508982 219.593403,4.45508982 C221.585111,4.45508982 223.170591,4.97767578 224.349892,6.02286336 C225.529192,7.06805095 226.210556,8.56613069 226.394002,10.5171475 L225.686425,10.5171475 C225.485508,8.76645831 224.874028,7.43604157 223.851967,6.52585738 C222.829907,5.61567318 221.410399,5.16058792 219.593403,5.16058792 C217.741464,5.16058792 216.245522,5.85736919 215.105532,7.25095264 C213.965541,8.64453609 213.395555,10.5127809 213.395555,12.8557431 L213.395555,15.6516059 C213.395555,17.1497081 213.648882,18.47577 214.155544,19.6298312 C214.662207,20.7838925 215.389431,21.6831759 216.33724,22.3277082 C217.285048,22.9722406 218.370425,23.2945019 219.593403,23.2945019 C221.419135,23.2945019 222.845194,22.845949 223.871622,21.9488296 C224.89805,21.0517103 225.502979,19.7060514 225.686425,17.9118127 L226.394002,17.9118127 Z M242.323798,23.7387044 L241.616221,23.7387044 L241.616221,14.3059336 L229.430177,14.3059336 L229.430177,23.7387044 L228.7226,23.7387044 L228.7226,4.71638541 L229.430177,4.71638541 L229.430177,13.6004355 L241.616221,13.6004355 L241.616221,4.71638541 L242.323798,4.71638541 L242.323798,23.7387044 Z M260.022536,14.7240065 C260.022536,16.5879244 259.699325,18.223183 259.052894,19.6298312 C258.406462,21.0364795 257.482691,22.1164905 256.281551,22.8698966 C255.080412,23.6233026 253.69803,24 252.134365,24 C250.588171,24 249.210157,23.6233026 248.000282,22.8698966 C246.790407,22.1164905 245.855716,21.0430119 245.196182,19.6494284 C244.536647,18.255845 244.202517,16.6488932 244.193781,14.8285248 L244.193781,13.7572128 C244.193781,11.9020049 244.523544,10.2645689 245.183078,8.84485574 C245.842613,7.4251426 246.772936,6.3385993 247.974076,5.58519325 C249.175215,4.8317872 250.553229,4.45508982 252.108159,4.45508982 C253.663088,4.45508982 255.041102,4.82743231 256.242242,5.57212847 C257.443381,6.31682463 258.37152,7.38812584 259.026687,8.78606424 C259.681854,10.1840026 260.013801,11.8105514 260.022536,13.6657594 L260.022536,14.7240065 Z M256.707408,13.7310833 C256.707408,11.6232883 256.307762,10.0076267 255.508458,8.88405008 C254.709154,7.76047342 253.575733,7.19869352 252.108159,7.19869352 C250.675527,7.19869352 249.555208,7.75829598 248.747169,8.87751769 C247.93913,9.9967394 247.526381,11.5797394 247.508909,13.6265651 L247.508909,14.7240065 C247.508909,16.8143817 247.917291,18.4300433 248.734066,19.5710397 C249.55084,20.7120362 250.684262,21.2825259 252.134365,21.2825259 C253.601939,21.2825259 254.730993,20.7251008 255.521561,19.6102341 C256.31213,18.4953673 256.707408,16.8666411 256.707408,14.7240065 L256.707408,13.7310833 Z M275.66406,23.7387044 L274.956483,23.7387044 L262.639406,5.91834513 L262.639406,23.7387044 L261.918726,23.7387044 L261.918726,4.71638541 L262.639406,4.71638541 L274.956483,22.4975504 L274.956483,4.71638541 L275.66406,4.71638541 L275.66406,23.7387044 Z M279.538844,23.0332063 L289.326989,23.0332063 L289.326989,23.7387044 L278.818164,23.7387044 L278.818164,4.71638541 L279.538844,4.71638541 L279.538844,23.0332063 Z M291.812826,23.7387044 L291.10525,23.7387044 L291.10525,4.71638541 L291.812826,4.71638541 L291.812826,23.7387044 Z M309.236395,23.7387044 L308.528819,23.7387044 L296.211741,5.91834513 L296.211741,23.7387044 L295.491061,23.7387044 L295.491061,4.71638541 L296.211741,4.71638541 L308.528819,22.4975504 L308.528819,4.71638541 L309.236395,4.71638541 L309.236395,23.7387044 Z M322.663466,14.3059336 L313.098076,14.3059336 L313.098076,23.0332063 L324,23.0332063 L324,23.7387044 L312.390499,23.7387044 L312.390499,4.71638541 L324,4.71638541 L324,5.42188351 L313.098076,5.42188351 L313.098076,13.6004355 L322.663466,13.6004355 L322.663466,14.3059336 Z"
       id="path4"
       style="fill:#ffffff" />
    <path
       d="M 285.74219,30.125 283.76562,41.5 h 0.95313 l 0.80469,-4.632812 2.875,0.0078 c 1.21355,0 2.1979,-0.30208 2.95312,-0.90625 0.75523,-0.60417 1.18491,-1.437495 1.28906,-2.5 0.0885,-1.000005 -0.15625,-1.798174 -0.73437,-2.394531 -0.57813,-0.596357 -1.39844,-0.910156 -2.46094,-0.941407 z m 0.8125,0.820312 2.86719,0.0078 c 0.76562,0.02083 1.35546,0.253904 1.76953,0.699219 0.41406,0.445314 0.57942,1.053383 0.49609,1.824218 -0.099,0.807297 -0.44011,1.440102 -1.02344,1.898438 -0.58332,0.458336 -1.32552,0.6875 -2.22656,0.6875 l -2.77344,-0.0078 z"
       id="path836"
       inkscape:connector-curvature="0"
       style="fill:#ffffff" />
  </g>
</svg>
